{
  "variables": [
    {
      "name": "control",
      "type": "local",
      "values": ["neutral", "firstLevel", "secondLevel"]
    }, {
      "name": "k",
      "type": "pointer"
    }
  ],
  "states": ["initial", "passFirstCheck", "checkK", "setK", "CS",
             "endCritical", "loop1_init", "loop2_init", "loop3_init",
             "loop4_init", "sink"],
  "transitions": [
    {
      "type": "local",
      "src": "initial",
      "target": "loop1_init",
      "assignments": {
        "control": "firstLevel"
      }
    }, {
      "type": "iteration",
      "src": "loop1_init",
      "start": "k",
      "direction": "up",
      "exits": [
        {
          "guard": ["other == self"],
          "target": "passFirstCheck"
        }, {
          "guard": ["control != neutral", "other != self"],
          "target": "loop1_init"
        }, {
          "guard": "exceeded",
          "target": "loop2_init"
        }
      ]
    }, {
      "type": "iteration",
      "direction": "up",
      "src": "loop2_init",
      "exits": [
        {
          "guard": ["other == self"],
          "target": "passFirstCheck"
        }, {
          "guard": ["control != neutral", "other != self", "other != k"],
          "target": "loop1_init"
        }, {
          "guard": ["other == k", "control == neutral"],
          "target": "passFirstCheck"
        }
      ]
    }, {
      "type": "local",
      "src": "passFirstCheck",
      "target": "loop3_init",
      "assignments": {
        "control": "secondLevel"
      }
    }, {
      "type": "iteration",
      "src": "loop3_init",
      "exits": [
        {
          "guard": ["other != self", "control == secondLevel"],
          "target": "initial"
        }, {
          "guard": "exceeded",
          "target": "checkK"
        }
      ]
    }, {
      "type": "local",
      "src": "checkK",
      "guard": ["k == self"],
      "target": "CS",
      "assignments": {
        "k": "self"
      }
    }, {
      "type": "local",
      "src": "checkK",
      "guard": ["control[k] == neutral", "k != self"],
      "target": "CS",
      "assignments": {
        "k": "self"
      }
    }, {
      "type": "local",
      "src": "checkK",
      "guard": ["control[k] != neutral", "k != self"],
      "target": "initial"
    }, {
      "type": "iteration",
      "src": "CS",
      "start": "k",
      "exits": [
        {
          "guard": ["other != k", "control != neutral"],
          "target": "endCritical",
          "assignments": {
            "k": "other"
          }
        }, {
          "guard": "exceeded",
          "target": "loop4_init"
        }
      ]
    }, {
      "type": "iteration",
      "src": "loop4_init",
      "exits": [
        {
          "guard": ["other == k"],
          "target": "endCritical"
        }, {
          "guard": ["other != k", "control != neutral"],
          "target": "endCritical"
        }
      ]
    }, {
      "type": "local",
      "src": "endCritical",
      "target": "initial",
      "assignments": {
        "control": "neutral"
      }
    }
  ],
  "unsafe": [
    {
      "name": "mutex",
      "configuration": {
        "existential": [
          {
            "state": "CS"
          }, {
            "state": "CS"
          }
        ]
      }
    }
  ]
}
