{
  "variables": [
    {
      "name": "b",
      "type": "local",
      "values": ["false", "true"]
    }
  ],
  "states": ["initial", "loop", "break", "crit", "done"],
  "transitions": [
    {
      "type": "local",
      "src": "initial",
      "target": "loop",
      "assignments": {
        "b": "true"
      }
    }, {
      "type": "iteration",
      "src": "loop",
      "exits": [
        {
          "guard": ["other != self", "b == true"],
          "target": "break"
        }, {
          "guard": "exceeded",
          "target": "crit"
        }
      ]
    }, {
      "type": "local",
      "src": "break",
      "target": "initial",
      "assignments": {
        "b": "false"
      }
    }, {
      "type": "local",
      "src": "crit",
      "target": "done"
    }, {
      "type": "local",
      "src": "done",
      "target": "initial",
      "assignments": {
        "b": "false"
      }
    }
  ],
  "unsafe": [
    {
      "name": "mutex",
      "configuration": {
        "existential": [
          {
            "state": "crit"
          }, {
            "state": "crit"
          }
        ]
      }
    }
  ]
}
